0,p,x
1,pc,x
2,pr,s
3,cora,s
4,asp,s
5,call,x
6,ja,x
7,jct,x
8,jp,x
9,jn,x
A,jz,x
B,jnz,x
C,jodd,x
D,zon,x
E,jzop,x
F0,ret,i
F1,add,i
F2,sub,i
F3,stav,i
F4,stva,i
F5,load,i
F6,awc,w
F7,pwc,w
F8,dupe,i
F9,esba,i
FA,reba,i
FB,zsp,i
FC,cmps,y
FD,cmpu,y
FE,rev,i
FF0,shll,z
FF1,shrl,z
FF2,shra,z
FF3,neg,i
FF4,mult,i
FF5,div,i
FF6,rem,i
FF7,addy,i
FF8,or,i
FF9,xo,i
FFA,and,i
FFB,flip,i
FFC,cali,i
FFD,sct,i
FFE,rot,i
FFF0,psp,i
FFF1,bpbp,i
FFF2,pobp,i
FFF3,pbp,i
FFF4,bcpy,i
FFF5,uout,i
FFF6,sin,i
FFF7,sout,i
FFF8,hin,i
FFF9,hout,i
FFFA,ain,i
FFFB,aout,i
FFFC,din,i
FFFD,dout,i
FFFE,noop,i
FFFF,halt,i
